<svg width="111" height="32" viewBox="0 0 111 32" fill="none" xmlns="http://www.w3.org/2000/svg">
<path fill-rule="evenodd" clip-rule="evenodd" d="M93.1013 16.5557H100.621L101.839 19.5345H91.6881L90.0688 22.9564H85.5879L96.7049 0.408203H99.8021L110.919 22.9564H106.438L98.2535 5.54393L93.1013 16.5557Z" fill="#136DFB"/>
<path fill-rule="evenodd" clip-rule="evenodd" d="M8.26949 16.7193H15.7888L17.0076 19.704H6.85631L5.23705 23.1259H0.756104L11.8731 0.577637H14.9703L26.0814 23.1259H21.6063L13.4158 5.71336L8.26949 16.7193Z" fill="#136DFB"/>
<path fill-rule="evenodd" clip-rule="evenodd" d="M50.5295 16.7188H58.0488L59.2618 19.7035H49.1163L47.4971 23.1254H43.0161L54.1272 0.577148H57.2303L68.3414 23.1254H63.8605L55.6758 5.71287L50.5295 16.7188Z" fill="#136DFB"/>
<path fill-rule="evenodd" clip-rule="evenodd" d="M21.9009 0.501465L33.0061 23.0497H33.1945H35.9208H36.1092L47.2203 0.501465H42.7452L34.5547 18.2462L26.37 0.501465H21.9009Z" fill="#136DFB"/>
<path fill-rule="evenodd" clip-rule="evenodd" d="M74.5477 31.5198L89.8866 0.501465H85.4115L76.8853 18.5785L69.0363 0.501465H64.5613L74.6655 23.0497L70.2611 31.5198H74.5477Z" fill="#136DFB"/>
</svg>
