<svg width="117" height="117" viewBox="0 0 117 117" fill="none" xmlns="http://www.w3.org/2000/svg">
<circle cx="58.5" cy="58.5" r="58.5" fill="#FBECB9"/>
<path d="M57.7778 70.5556C65.387 70.5556 71.5556 64.387 71.5556 56.7778C71.5556 49.1685 65.387 43 57.7778 43C50.1685 43 44 49.1685 44 56.7778C44 64.387 50.1685 70.5556 57.7778 70.5556Z" stroke="#FC1048" stroke-width="5"/>
<path d="M74.9997 74L67.5081 66.5083" stroke="#FC1048" stroke-width="5"/>
</svg>
